DATA624_Homework3
…
aus_retail

## # A tsibble: 64,532 x 5 [1M]
## # Key:       State, Industry [152]
##    State                        Industry           `Series ID`    Month Turnover
##    <chr>                        <chr>              <chr>          <mth>    <dbl>
##  1 Australian Capital Territory Cafes, restaurant A3349849A   1982 Apr      4.4
##  2 Australian Capital Territory Cafes, restaurant A3349849A   1982 May      3.4
##  3 Australian Capital Territory Cafes, restaurant A3349849A   1982 Jun      3.6
##  4 Australian Capital Territory Cafes, restaurant A3349849A   1982 Jul      4  
##  5 Australian Capital Territory Cafes, restaurant A3349849A   1982 Aug      3.6
##  6 Australian Capital Territory Cafes, restaurant A3349849A   1982 Sep      4.2
##  7 Australian Capital Territory Cafes, restaurant A3349849A   1982 Oct      4.8
##  8 Australian Capital Territory Cafes, restaurant A3349849A   1982 Nov      5.4
##  9 Australian Capital Territory Cafes, restaurant A3349849A   1982 Dec      6.9
## 10 Australian Capital Territory Cafes, restaurant A3349849A   1983 Jan      3.8
## #  64,522 more rows
…
