DATA624_Project1
…
#p <- atm1_forecast |>     autoplot(atm1)
#ggsave("images/atm1_proj_full.png", plot = p, width = 12, height = 8, dpi = 300)

## Looking at forecasted values 
atm1_forecast|> hilo() |> as_tsibble()

## # A tsibble: 30 x 7 [1D]
## # Key:       ATM, .model [1]
##    ATM   .model    DATE                  Cash  .mean                     `80%`
##    <chr> <chr>     <date>              <dist>  <dbl>                    <hilo>
##  1 ATM1  auto_step 2010-05-01 t(N(4.5, 0.35)) 103.   [40.993699, 187.035159]80
##  2 ATM1  auto_step 2010-05-02 t(N(4.6, 0.35)) 118.   [46.849475, 213.752342]80
##  3 ATM1  auto_step 2010-05-03 t(N(4.3, 0.35))  86.2  [34.343624, 156.693965]80
##  4 ATM1  auto_step 2010-05-04 t(N(1.4, 0.35))   4.81 [ 1.917228,   8.747421]80
##  5 ATM1  auto_step 2010-05-05 t(N(4.6, 0.35)) 118.   [46.816740, 213.602984]80
##  6 ATM1  auto_step 2010-05-06 t(N(4.4, 0.35))  93.0  [37.047991, 169.032733]80
##  7 ATM1  auto_step 2010-05-07 t(N(4.5, 0.35)) 101.   [40.200885, 183.417918]80
##  8 ATM1  auto_step 2010-05-08 t(N(4.5, 0.39)) 105.   [39.299975, 195.095874]80
##  9 ATM1  auto_step 2010-05-09 t(N(4.6, 0.39)) 120.   [44.913810, 222.964497]80
## 10 ATM1  auto_step 2010-05-10 t(N(4.3, 0.39))  87.7  [32.924659, 163.447056]80
## #  20 more rows
## #  1 more variable: `95%` <hilo>
…
## Looking at forecasted values 
atm2_forecast|> hilo() |> as_tsibble()

## # A tsibble: 30 x 7 [1D]
## # Key:       ATM, .model [1]
##    ATM   .model    DATE      
##    <chr> <chr>     <date>    
##  1 ATM2  auto_step 2010-05-01
##  2 ATM2  auto_step 2010-05-02
##  3 ATM2  auto_step 2010-05-03
##  4 ATM2  auto_step 2010-05-04
##  5 ATM2  auto_step 2010-05-05
##  6 ATM2  auto_step 2010-05-06
##  7 ATM2  auto_step 2010-05-07
##  8 ATM2  auto_step 2010-05-08
##  9 ATM2  auto_step 2010-05-09
## 10 ATM2  auto_step 2010-05-10
## #  20 more rows
## #  4 more variables: Cash <dist>, .mean <dbl>, `80%` <hilo>, `95%` <hilo>

ATM3 Work

#Chcking for zeros
print(atm3 |> filter(Cash==0)) # 362 Zero values. this ATm Projection will need to be different from other 3

## # A tsibble: 362 x 4 [1D]
## # Key:       ATM [1]
##    DATE       ATM    Cash source  
##    <date>     <chr> <dbl> <chr>   
##  1 2009-05-01 ATM3      0 original
##  2 2009-05-02 ATM3      0 original
##  3 2009-05-03 ATM3      0 original
##  4 2009-05-04 ATM3      0 original
##  5 2009-05-05 ATM3      0 original
##  6 2009-05-06 ATM3      0 original
##  7 2009-05-07 ATM3      0 original
##  8 2009-05-08 ATM3      0 original
##  9 2009-05-09 ATM3      0 original
## 10 2009-05-10 ATM3      0 original
## #  352 more rows
…
## Looking at forecasted values 
atm4_forecast|> hilo() |> as_tsibble()

## # A tsibble: 30 x 7 [1D]
## # Key:       ATM, .model [1]
##    ATM   .model    DATE      
##    <chr> <chr>     <date>    
##  1 ATM4  auto_step 2010-05-01
##  2 ATM4  auto_step 2010-05-02
##  3 ATM4  auto_step 2010-05-03
##  4 ATM4  auto_step 2010-05-04
##  5 ATM4  auto_step 2010-05-05
##  6 ATM4  auto_step 2010-05-06
##  7 ATM4  auto_step 2010-05-07
##  8 ATM4  auto_step 2010-05-08
##  9 ATM4  auto_step 2010-05-09
## 10 ATM4  auto_step 2010-05-10
## #  20 more rows
## #  4 more variables: Cash <dist>, .mean <dbl>, `80%` <hilo>, `95%` <hilo>
…
